/* XPM */
static char * ami_d_xpm[] = {
"48 48 608 2",
"  	c None",
". 	c #3D4A98",
"+ 	c #7885C7",
"@ 	c #8F90E0",
"# 	c #7C85DD",
"$ 	c #727DD3",
"% 	c #6B77CE",
"& 	c #6470C7",
"* 	c #5F6AC0",
"= 	c #5461B5",
"- 	c #515FB2",
"; 	c #515EB0",
"> 	c #5764B2",
", 	c #707DC1",
"' 	c #8690CF",
") 	c #A0ABE1",
"! 	c #BCC5F3",
"~ 	c #E9F0FE",
"{ 	c #F1F9FE",
"] 	c #EFF6FE",
"^ 	c #E1E9FE",
"/ 	c #A9B3E4",
"( 	c #8997D0",
"_ 	c #6E7DBD",
": 	c #5667AD",
"< 	c #3F4D8C",
"[ 	c #374582",
"} 	c #323F79",
"| 	c #2E3B75",
"1 	c #29366E",
"2 	c #29346C",
"3 	c #28356B",
"4 	c #28336B",
"5 	c #27336E",
"6 	c #28346F",
"7 	c #293570",
"8 	c #2A3673",
"9 	c #2B3774",
"0 	c #2B3776",
"a 	c #2C3675",
"b 	c #2B3574",
"c 	c #293572",
"d 	c #27316E",
"e 	c #26316B",
"f 	c #25306A",
"g 	c #3E417D",
"h 	c #5C6AB3",
"i 	c #5B68B4",
"j 	c #1D275A",
"k 	c #1D295A",
"l 	c #1E285B",
"m 	c #1E2A5B",
"n 	c #1F2A5C",
"o 	c #1F2B5E",
"p 	c #202C5F",
"q 	c #222C61",
"r 	c #253068",
"s 	c #26326B",
"t 	c #2C3875",
"u 	c #323F81",
"v 	c #354286",
"w 	c #37438A",
"x 	c #38438B",
"y 	c #5A69B1",
"z 	c #A4AFE5",
"A 	c #1B1E46",
"B 	c #1C204A",
"C 	c #1D214D",
"D 	c #1F2250",
"E 	c #202353",
"F 	c #212556",
"G 	c #222658",
"H 	c #23275B",
"I 	c #24285D",
"J 	c #25295F",
"K 	c #262A61",
"L 	c #262B62",
"M 	c #272B63",
"N 	c #282C64",
"O 	c #282C66",
"P 	c #282C67",
"Q 	c #282D68",
"R 	c #292E69",
"S 	c #292E6A",
"T 	c #2A2F6C",
"U 	c #2B306E",
"V 	c #2B3070",
"W 	c #2C3173",
"X 	c #2E3377",
"Y 	c #2F347B",
"Z 	c #31367F",
"` 	c #333882",
" .	c #343A86",
"..	c #363C8A",
"+.	c #383E8E",
"@.	c #393F92",
"#.	c #3A4094",
"$.	c #3A4196",
"%.	c #3A4195",
"&.	c #394093",
"*.	c #333983",
"=.	c #31367D",
"-.	c #2E3376",
";.	c #292D68",
">.	c #262A62",
",.	c #FFFFFF",
"'.	c #5867B1",
").	c #1B1E47",
"!.	c #1E214D",
"~.	c #222659",
"{.	c #252960",
"].	c #272C64",
"^.	c #282C65",
"/.	c #282D67",
"(.	c #2A2E6B",
"_.	c #2C3071",
":.	c #2D3174",
"<.	c #2E3378",
"[.	c #30357B",
"}.	c #323780",
"|.	c #353A87",
"1.	c #373D8B",
"2.	c #383E8F",
"3.	c #3B4297",
"4.	c #3B4196",
"5.	c #3A4194",
"6.	c #343984",
"7.	c #31367E",
"8.	c #2F3377",
"9.	c #2C306F",
"0.	c #23285C",
"a.	c #5665AF",
"b.	c #1C204B",
"c.	c #1E214E",
"d.	c #1F2251",
"e.	c #202454",
"f.	c #222557",
"g.	c #E7E7E7",
"h.	c #F9F9F9",
"i.	c #767892",
"j.	c #272B64",
"k.	c #272C65",
"l.	c #282D66",
"m.	c #2A2F6B",
"n.	c #2B2F6D",
"o.	c #2C3172",
"p.	c #2D3274",
"q.	c #2F3379",
"r.	c #F5F5F5",
"s.	c #FDFDFD",
"t.	c #F2F2F2",
"u.	c #EBEBEB",
"v.	c #3C4299",
"w.	c #3B4298",
"x.	c #5F5F5F",
"y.	c #505050",
"z.	c #2F3479",
"A.	c #2C3170",
"B.	c #23275C",
"C.	c #5564AE",
"D.	c #1B1F48",
"E.	c #1D204C",
"F.	c #1E214F",
"G.	c #1F2351",
"H.	c #212455",
"I.	c #F6F6F6",
"J.	c #2E336B",
"K.	c #FBFBFB",
"L.	c #2E3275",
"M.	c #3D439A",
"N.	c #3C4399",
"O.	c #FAFAFA",
"P.	c #4F4F4F",
"Q.	c #424242",
"R.	c #30347A",
"S.	c #2C3171",
"T.	c #2A2E6A",
"U.	c #5362AC",
"V.	c #A2ABE3",
"W.	c #1E224F",
"X.	c #202352",
"Y.	c #E8E8E8",
"Z.	c #1B1B1B",
"`.	c #020202",
" +	c #878787",
".+	c #DFDFDF",
"++	c #3A3B3E",
"@+	c #EFEFEF",
"#+	c #2D3173",
"$+	c #3F3F3F",
"%+	c #1F1F1F",
"&+	c #939393",
"*+	c #F3F3F3",
"=+	c #3D449C",
"-+	c #3D449B",
";+	c #EDEDED",
">+	c #3E3E3E",
",+	c #24285E",
"'+	c #5160AA",
")+	c #A1AAE2",
"!+	c #1C1F49",
"~+	c #9F9F9F",
"{+	c #080808",
"]+	c #0A0A0A",
"^+	c #EEEEEE",
"/+	c #2D3172",
"(+	c #373D8C",
"_+	c #393F91",
":+	c #8B8B8B",
"<+	c #3E459E",
"[+	c #3E459D",
"}+	c #ECECEC",
"|+	c #404040",
"1+	c #2A2F6D",
"2+	c #25295E",
"3+	c #4F5EA8",
"4+	c #9FA8E0",
"5+	c #A9A9A9",
"6+	c #DBDBDB",
"7+	c #000000",
"8+	c #5E6180",
"9+	c #2B2B2B",
"0+	c #949494",
"a+	c #4D5EA4",
"b+	c #9BA5DE",
"c+	c #1D204B",
"d+	c #E9E9E9",
"e+	c #676767",
"f+	c #3A3B4B",
"g+	c #0B0B0B",
"h+	c #3C4298",
"i+	c #9B9B9B",
"j+	c #4047A2",
"k+	c #3F46A1",
"l+	c #3F46A0",
"m+	c #2B306F",
"n+	c #4D5DA2",
"o+	c #9AA3DD",
"p+	c #212557",
"q+	c #23275A",
"r+	c #CDCDCD",
"s+	c #7B7B7B",
"t+	c #2C2C2C",
"u+	c #2B2F6C",
"v+	c #2B306D",
"w+	c #505487",
"x+	c #828282",
"y+	c #C8C8C8",
"z+	c #4148A4",
"A+	c #4047A3",
"B+	c #EAEAEA",
"C+	c #434343",
"D+	c #2F3478",
"E+	c #2C3070",
"F+	c #292D69",
"G+	c #4B5BA0",
"H+	c #97A1DC",
"I+	c #2B2E61",
"J+	c #383A48",
"K+	c #393A49",
"L+	c #0F0F0F",
"M+	c #262626",
"N+	c #2D3273",
"O+	c #2F3378",
"P+	c #4148A6",
"Q+	c #4047A4",
"R+	c #4A5A9F",
"S+	c #96A2DB",
"T+	c #1F2352",
"U+	c #252A60",
"V+	c #2C316F",
"W+	c #F1F1F1",
"X+	c #3A3B4C",
"Y+	c #2E3274",
"Z+	c #30357C",
"`+	c #323781",
" @	c #E3E3E3",
".@	c #BFBFBF",
"+@	c #AFAFAF",
"@@	c #4249A8",
"#@	c #3D3D3D",
"$@	c #343A85",
"%@	c #49589C",
"&@	c #949FD9",
"*@	c #2D3171",
"=@	c #30347B",
"-@	c #323882",
";@	c #111111",
">@	c #070707",
",@	c #131313",
"'@	c #141414",
")@	c #151515",
"!@	c #040404",
"~@	c #434AAA",
"{@	c #393939",
"]@	c #31357C",
"^@	c #48589B",
"/@	c #939ED8",
"(@	c #2D3272",
"_@	c #333883",
":@	c #4148A5",
"<@	c #434AAB",
"[@	c #444BAC",
"}@	c #444AAC",
"|@	c #F8F8F8",
"1@	c #4B4B4B",
"2@	c #3A3A3A",
"3@	c #353B89",
"4@	c #465699",
"5@	c #909CD7",
"6@	c #31377F",
"7@	c #333984",
"8@	c #353B88",
"9@	c #373E8E",
"0@	c #4046A2",
"a@	c #4249A7",
"b@	c #444BAD",
"c@	c #454CAE",
"d@	c #444BAE",
"e@	c #3C3C3C",
"f@	c #32377F",
"g@	c #465397",
"h@	c #8F9BD6",
"i@	c #24295E",
"j@	c #262B63",
"k@	c #2E3374",
"l@	c #2E3375",
"m@	c #343985",
"n@	c #363C89",
"o@	c #3E459F",
"p@	c #4249A9",
"q@	c #464DB0",
"r@	c #454CB0",
"s@	c #272C66",
"t@	c #445395",
"u@	c #8E98D5",
"v@	c #2F3376",
"w@	c #777777",
"x@	c #171717",
"y@	c #303479",
"z@	c #323881",
"A@	c #383F90",
"B@	c #3C439A",
"C@	c #474EB1",
"D@	c #AEAEAE",
"E@	c #373D8E",
"F@	c #435294",
"G@	c #8D97D4",
"H@	c #2F3477",
"I@	c #30357A",
"J@	c #363C8B",
"K@	c #454CAF",
"L@	c #474EB2",
"M@	c #484FB3",
"N@	c #424AA9",
"O@	c #424F91",
"P@	c #8A95D1",
"Q@	c #394092",
"R@	c #464DB1",
"S@	c #484FB4",
"T@	c #4950B5",
"U@	c #3D439B",
"V@	c #404F8F",
"W@	c #8793D0",
"X@	c #373D8D",
"Y@	c #3A4093",
"Z@	c #4A51B7",
"`@	c #4951B5",
" #	c #404E8D",
".#	c #8692CF",
"+#	c #24285C",
"@#	c #31357B",
"##	c #4A52B7",
"$#	c #4B53B8",
"%#	c #4B52B7",
"&#	c #353B87",
"*#	c #858FCE",
"=#	c #31367C",
"-#	c #3E45A0",
";#	c #434AAC",
">#	c #4D54BA",
",#	c #4C54B9",
"'#	c #3F459F",
")#	c #3B4195",
"!#	c #3E4C8B",
"~#	c #8490CD",
"{#	c #22275A",
"]#	c #2B2F6E",
"^#	c #32367F",
"/#	c #32367E",
"(#	c #474EB3",
"_#	c #4E56BB",
":#	c #4D55BA",
"<#	c #3D4C8A",
"[#	c #818ECC",
"}#	c #32377E",
"|#	c #333881",
"1#	c #3F46A2",
"2#	c #444CAE",
"3#	c #4B52B8",
"4#	c #4D55BB",
"5#	c #4F57BD",
"6#	c #5058BD",
"7#	c #4F56BC",
"8#	c #444BAB",
"9#	c #3C4B89",
"0#	c #818CCC",
"a#	c #2E3276",
"b#	c #333985",
"c#	c #3D449D",
"d#	c #4C53B9",
"e#	c #5159BE",
"f#	c #3B4A88",
"g#	c #7F8BCA",
"h#	c #333880",
"i#	c #4951B6",
"j#	c #525ABF",
"k#	c #4A52B6",
"l#	c #3C4887",
"m#	c #7E8AC9",
"n#	c #2F347A",
"o#	c #363B89",
"p#	c #535BC0",
"q#	c #4F57BC",
"r#	c #3A4785",
"s#	c #7B88C8",
"t#	c #343A87",
"u#	c #333982",
"v#	c #545CC1",
"w#	c #545BC1",
"x#	c #5058BE",
"y#	c #464EB1",
"z#	c #3A4683",
"A#	c #7986C6",
"B#	c #3A4095",
"C#	c #555DC2",
"D#	c #5259BF",
"E#	c #434AA9",
"F#	c #394782",
"G#	c #7884C5",
"H#	c #373C8B",
"I#	c #383F91",
"J#	c #4C54BA",
"K#	c #565EC3",
"L#	c #575EC3",
"M#	c #384681",
"N#	c #7683C5",
"O#	c #2A2E6C",
"P#	c #353A86",
"Q#	c #343A84",
"R#	c #4148A7",
"S#	c #575FC4",
"T#	c #585FC4",
"U#	c #384481",
"V#	c #7682C3",
"W#	c #5860C5",
"X#	c #5960C5",
"Y#	c #374380",
"Z#	c #7481C3",
"`#	c #353B86",
" $	c #3B4197",
".$	c #5961C6",
"+$	c #36447F",
"@$	c #7380C2",
"#$	c #363B88",
"$$	c #3F47A3",
"%$	c #464CB0",
"&$	c #4A51B6",
"*$	c #5A62C6",
"=$	c #5A62C7",
"-$	c #5A61C6",
";$	c #35437E",
">$	c #727FC1",
",$	c #393F90",
"'$	c #363C88",
")$	c #5B63C8",
"!$	c #4C53B8",
"~$	c #35417E",
"{$	c #707EC1",
"]$	c #373E8F",
"^$	c #394094",
"/$	c #3D449E",
"($	c #4249AA",
"_$	c #5C64C8",
":$	c #35407C",
"<$	c #707DBF",
"[$	c #383E8D",
"}$	c #3E449E",
"|$	c #464DB2",
"1$	c #4A52B8",
"2$	c #5961C5",
"3$	c #5D64C9",
"4$	c #5C64C9",
"5$	c #4248A7",
"6$	c #31377E",
"7$	c #33407A",
"8$	c #6C79BD",
"9$	c #3C439B",
"0$	c #383D8D",
"a$	c #373D8A",
"b$	c #373C8A",
"c$	c #464EB2",
"d$	c #5D65C9",
"e$	c #5E65CA",
"f$	c #5D65CA",
"g$	c #6A77BB",
"h$	c #2D3275",
"i$	c #3F45A0",
"j$	c #3E449D",
"k$	c #383E90",
"l$	c #5E66CA",
"m$	c #323E79",
"n$	c #5E66CB",
"o$	c #313E78",
"p$	c #6876BB",
"q$	c #383D8C",
"r$	c #4B53B9",
"s$	c #5159BF",
"t$	c #5F66CB",
"u$	c #313D78",
"v$	c #6875B9",
"w$	c #383D8B",
"x$	c #4048A4",
"y$	c #5C63C8",
"z$	c #313E76",
"A$	c #6673B9",
"B$	c #4149A7",
"C$	c #313C76",
"D$	c #6573B8",
"E$	c #D5D8FE",
"F$	c #B7BFFE",
"G$	c #BFC6FE",
"H$	c #C3CBFE",
"I$	c #C7D0FE",
"J$	c #CBD3FE",
"K$	c #D3DAFE",
"L$	c #D7DFFE",
"M$	c #DDE6FE",
"N$	c #E3EBFE",
"O$	c #F3FBFE",
"P$	c #FBFEFE",
"Q$	c #E7EFFE",
"R$	c #C9D2FE",
"S$	c #B9C1F4",
"T$	c #A7B0E8",
"U$	c #98A2DF",
"V$	c #7F8CCE",
"W$	c #7581C8",
"X$	c #6F7BC4",
"Y$	c #6773C0",
"Z$	c #5E6BBB",
"`$	c #5A68BB",
" %	c #5967BA",
".%	c #5765BA",
"+%	c #5664B9",
"@%	c #5561BA",
"#%	c #5460B9",
"$%	c #535FB8",
"%%	c #4D59B6",
"&%	c #4B58B4",
"*%	c #4955B0",
"=%	c #4654AB",
"-%	c #424FA1",
";%	c #3E4B9B",
">%	c #3C4895",
",%	c #585AAF",
"'%	c #14194B",
")%	c #23234E",
"!%	c #3A4885",
"~%	c #404D8D",
"{%	c #414F8E",
"]%	c #425191",
"^%	c #455494",
"/%	c #455496",
"(%	c #475498",
"_%	c #485599",
":%	c #49589A",
"<%	c #49579C",
"[%	c #49599C",
"}%	c #4A589D",
"|%	c #4A5A9D",
"1%	c #4B599E",
"2%	c #4B5A9E",
"3%	c #4C5C9F",
"4%	c #4C5AA1",
"5%	c #4E5BA1",
"6%	c #4E5DA1",
"7%	c #4F5DA4",
"8%	c #505EA5",
"9%	c #515FA6",
"0%	c #5061A7",
"a%	c #5262A9",
"b%	c #5363AA",
"c%	c #5565AC",
"d%	c #5665AD",
"e%	c #5868AF",
"f%	c #596AB0",
"g%	c #5A6BB1",
"h%	c #5C6CB1",
"i%	c #5D6DB2",
"j%	c #5E6EB3",
"k%	c #5F6FB4",
"l%	c #606EB5",
"m%	c #6E7BBD",
"n%	c #9FA8E2",
"o%	c #AFB8F0",
"p%	c #B8C1F9",
"q%	c #B5BFFA",
"                                                                                                ",
". + @ # $ % & * = - ; > , ' ) ! ~ { ] ^ / ( _ : < [ } | 1 2 3 4 5 5 6 7 8 9 0 a 0 b 8 c d e f g ",
"h i j j j j j j j j j j j j j j j j j j j j j j j j j j k k k k k l l m n o p q r s 7 t u v w x ",
"y z A B C D E F G H I J K L M N O P Q R S T U V W X Y Z `  ...+.@.#.$.$.%.&.+...*.=.-.U ;.>.H ,.",
"'.z ).B !.D E F ~.H I {.K M ].^.O /.,.,.(.T U _.:.<.[.}.*.|.1.2.&.%.3.3.4.5.,.,.6.7.8.9.R L 0.,.",
"a.z ).b.c.d.e.f.g.,.,.h.i.j.k.l./.;.,.,.m.n.9.o.p.q.r.,.,.s.t.s.,.,.u.v.w.4.,.,.x.y.z.A.R M B.,.",
"C.z D.E.F.G.H.t.,.I.g.,.,.k.O /.;.J.K.,.T U A.o.L.z.,.,.,.,.,.,.,.,.,.M.N.3.O.,.P.Q.R.S.T.j.I ,.",
"U.V.D.E.W.X.F ,.Y.Z.`. +,..+++;.R S @+,.n.U S.#+-.R.,.,.$+%+%+%+&+,.*+=+-+N.;+,.$+>+[.#+m.k.,+,.",
"'+)+!+C D E f.,.~+{+>.].,.,.]+R S T.^+,.,.,./+p.X [.,.,.%+(+_+%.:+,..+<+[+-+}+,.$+|+=.p.1+O 2+,.",
"3+4+!+C D E f.,.g.{.>.5+,.6+7+R S T.;+,.8+9.9+p.X [.,.,.7+(+_+%.0+,..+<+[+-+u.,.$+|+=.p.1+O 2+,.",
"a+b+c+W.X.F ~.d+,.I.;+,.,.e+]+m.T n.}+,.f+S.p.-.z.7.,.,.g+2.5.h+i+,..+j+k+l+u.,.$+|+}.X m+;.{.,.",
"n+o+E.D E p+q+,+r+,.,.I.s+7+t+u+v+U ;+,.f+/+L.X R.Z ,.,.(+w+x+:+y+,.,.z+A+j+B+,.$+C+` D+E+F+K ,.",
"G+H+C d.e.G 0.I+>.J+K+L+`.M+n.U U 9.@+,.f+N+-.O+[.}.,.,.,.,.,.,.,.,.,.P+P+Q+u.,.$+Q.*.z.S.R K ,.",
"R+S+c.T+H.~.I U+M O R (.T n.U 9.V+A.W+,.X+Y+X z.Z+`+ @g.6+.@.@.@.+@++@@@@@P+}+,.$+#@$@[./+(.L ,.",
"%@&@F.E F q+2+>.k.;.S T v+m+E+A.S.*@t.,.X+L.O+=@7.-@ .;@>@]+,@'@)@]+!@~@~@@@}+,.$+{@|.]@p.T M ,.",
"^@/@D e.G B.{.M O R T U 9.E+S.*@(@(@O.,.L.-.z.Z+Z _@|.(+_+4.=+k+:@@@<@[@}@~@|@,.1@2@3@7.L.1+j.,.",
"4@5@d.H.~.I K k.Q (.n.9.S./+(@N+N+Y+,.,.-.8.R.Z+6@7@8@9@&.w.<+0@a@~@b@c@d@[@,.,.x.e@..f@-.n.k.,.",
"g@h@T+F q+i@j@O R T m+S./+N+Y+Y+k@l@,.,.8.D+[.=.}.m@n@2.#.N.o@A+p@[@c@q@r@c@,.,.x.{@(+}.8.m+s@,.",
"t@u@E f.H {.j./.(.U A./+p.L.l@-.v@v@v@w@x@y@Z+7.z@ ...A@%.B@l+:@~@c@q@C@C@q@D@w@x@#@E@` D+9.O ,.",
"F@G@e.~.I K ^.R T E+/+p.l@-.8.H@H@H@D+D+z.I@]@Z -@|.J@_+4.-+k+P+[@K@L@M@M@L@c@N@k+N.2.*.z.A./.,.",
"O@P@H.q+i@L /.(.U S.N+-.X O+D+y@y@y@y@y@R.[.=.}._@8@(+Q@3.=+A+@@b@R@S@T@T@S@q@<@A+U@_+m@[.S.Q ,.",
"V@W@F H J j.F+T E+N+l@8.D+y@I@I@I@I@I@I@[.]@7.`+7@8@X@Y@h+<+Q+p@K@L@T@Z@Z@`@L@b@:@=+Q@ .Z+/+F+,.",
" #.#f.+#K k.S U S.L.8.z.I@[.@#@#@#@#@#@#]@=.f@z@m@n@+.#.N.o@:@~@q@S@##$#$#%#S@K@P+<+5.&#=.N+R ,.",
"< *#~.,+>./.T E+N+X z.[.Z+=#=.=.=#=#=#=#=.7.}.-@$@..2.%.B@-#P+;#R@T@$#>#>#,#T@q@@@'#)#8@7.p.S ,.",
"!#~#{#J j.F+]#o.L.z.[.=.7.^#f@/#/#=.=.=.=.f@z@_@ .J@A@4.U@k+a@b@(#Z@,#_#_#:###L@~@k+3...f@L.(.,.",
"<#[#H U+k.S V p.X [.=.Z }.`+}.}.f@}#}#}#}#f@|#7@|.(+_+3.=+1#@@2#S@3#4#5#6#7#$#M@8#j+h+J@}.-.T ,.",
"9#0#+#>./.T S.a#z.=.6@`+` ` ` |#}.f@f@f@f@}.` b#8@X@@.w.c#j+p@K@T@d#7#e#e#6#>#T@b@Q+B@(+z@X T ,.",
"f#g#,+M F+]#N+O+[.6@z@_@*.6.*.` ` |#h#h#h#|#*.$@3@9@&.h+<+A+~@q@i#:#6#j#j#e#_#k#c@:@-+9@` O+n.,.",
"l#m#J k.S m+L.n#=.z@*.m@$@$@m@7@*.` |#|#|#` 7@ .o#+.&.v.o@Q+<@R@##_#e#p#p#j#q#$#q@a@=+2.*.D+]#,.",
"r#s#U+O T S.X Z+}.*.$@t#&#&# .$@6.*.u#u#u#u#6.t#..2.#.B@o@:@[@L@$#q#j#v#v#w#x#,#y#@@<+A@6.z.U ,.",
"z#A#>.Q ]##+z.7.-@$@&#3@n@o#8@&#$@6.*.*.*.*.$@&#J@A@B#B@l+P+b@(#d#6#p#C#C#C#D#:#L@E#o@_+$@R.m+,.",
"F#G#M S V L.[.}.7@8@..J@(+J@..8@&#$@6.6.6.6. .8@H#I#%.U@l+P+d@S@J#e#v#K#L#K#p#_#S@~@l+Q@ .I@m+,.",
"M#N#k.O#S.X 7.`  ...(+X@9@X@(+..8@P#$@Q#Q#$@P#8@(+_+$.=+k+R#K@S@4#e#C#S#T#S#v#q#T@[@k+Y@|.[.E+,.",
"U#V#P 1+N+z.}.m@8@(++.2.2.2.X@1...&#P#$@$@$@&#o#(+@.4.=+1#@@K@T@_#j#C#W#X#W#C#6#i#b@j+#.8@Z+E+,.",
"Y#Z#;.m+L.[.` |.J@2.I#@.@.I#2.X@H#o#&#`#`#`#8@..X@@. $c#1#@@r@i#7#p#K#.$.$X#C#e###c@A+%.8@=.A.,.",
"+$@$S S.8.7.m@..X@_+&.#.#.&._+2.X@..#$&#&#&##$..E@&. $c#$$p@%$&$q#p#S#*$=$-$K#j#%#K@Q+4.o#=.S.,.",
";$>$(.#+n#}.&#(+A@#.%.4.$.B#&.,$+.1.n@8@&#&#'$..9@&.3.c#A+p@R@Z@6#v#S#=$)$=$S#p#!$q@:@3...7.*@,.",
"~${$n.L.Z+` ..2.&.4.w.h+w.4.#.@.2.(+..'$'$'$n@J@]$^$w./$A+($R@##6#v#W#)$_$)$W#p#,#R@P+3...7./+,.",
":$<$m+X 7.m@(+@.$.v.B@B@B@h+4.Y@_+[$1.n@n@n@n@H#2.^$w.}$A+($|$1$e#C#2$_$3$4$.$v#>#C@5$w.J@6$/+,.",
"7$8$#+[._@..@.3.9$c#<+<+}$=+v.4.Y@A@0$a$b$b$a$(+2.^$h+<+Q+~@c$$#e#K#-$d$e$f$=$C#_#L@a@h+(+f@N+,.",
"7$8$#+[._@..@.3.9$c#<+<+}$=+v.4.Y@A@0$a$b$b$a$(+2.^$h+<+Q+~@c$$#e#K#-$d$e$f$=$C#_#L@a@h+(+f@N+,.",
"} g$h$=.$@X@#.N.c#-#k+i$o@j$B@w.5._++.1.a$a$a$X@k$#.h+<+Q+~@c$$#e#K#=$d$l$e$=$K#_#M@@@N.(+}.N+,.",
"m$g$-.f@&#2.3.=+o@1#A+1#k+o@=+v.)#Q@2.(+a$a$1.X@k$B#h+o@Q+<@c$$#e#K#=$e$n$l$)$K#7#M@@@N.(+}.N+,.",
"o$p$O+z@n@_+N.<+1#Q+z+Q+j+l+c#B@4.&.A@q$1.a$1.X@k$B#v.o@Q+<@L@r$s$K#=$e$t$n$)$K#q#M@@@N.(+}.N+,.",
"u$v$n#*.(+#.U@i$A+P+P+:@Q+k+<+U@3.Y@,$[$1.1.w$X@A@%.v.o@x$<@(#r$j#K#=$l$t$t$y$S#q#S@@@N.(+}.N+,.",
"z$A$[.$@9@%.c#k+:@B$a@a@:@j+o@-+h+5._+[$w$w$q$X@A@%.v.o@:@<@(#r$j#K#=$l$t$t$y$S#q#S@@@N.X@}.p.,.",
"C$D$E$F$G$H$I$J$K$L$M$N$O$P$,.,.,.,.,.,.,.,.O$Q$R$S$T$U$V$W$X$Y$Z$`$ %.%+%@%#%$%%%&%*%=%-%;%>%,%",
"'%)%!%!%<#~%{%]%^%/%(%_%:%<%[%}%|%1%2%2%3%4%5%6%7%8%9%0%a%b%c%d%e%f%g%h%i%j%k%l%v$m%Z#[#n%o%p%q%"};
