/* XPM */
static char * ami_e_xpm[] = {
"48 48 8 1",
" 	c None",
".	c #DB0604",
"+	c #DA0604",
"@	c #DB0705",
"#	c #DB0806",
"$	c #DA0503",
"%	c #DB0907",
"&	c #DB0A08",
"                                                ",
"                                                ",
"                                                ",
"                                                ",
"                                                ",
"                       ..                       ",
"                      ....                      ",
"                     .....+                     ",
"                    @@...++.                    ",
"                   #@.......@                   ",
"                  @@.........@                  ",
"                 ..............                 ",
"                ................                ",
"               .....+$.$..$$$$...               ",
"              ....................              ",
"             ......................             ",
"            ........................            ",
"           ..........................           ",
"          ............................          ",
"         ..............................         ",
"        ................................        ",
"       .................................+       ",
"      ....................................      ",
"     ......................................     ",
"      .....................................     ",
"       ...................................      ",
"        ......$$$$$$$$$$$$$$$$$$$$$......       ",
"         .....$$$$$$$$$$$$$$$$$$$$+.....        ",
"          ....$$$$$$$$$$$$$$$$$$$$...@@         ",
"           .....$$$$$$$$$$$$$$$$......          ",
"            ....$$$$$$$$$.$$$$$$.@@#@           ",
"             ...+$$$$$$$$$$$$$$..#%%            ",
"              .................@@@#             ",
"               ...............@%%#              ",
"                ..............#&&               ",
"                 ............@#&                ",
"                  ..........##%                 ",
"                   ........@@#                  ",
"                    ........@                   ",
"                     .......                    ",
"                      .....                     ",
"                       ...                      ",
"                        .                       ",
"                                                ",
"                                                ",
"                                                ",
"                                                ",
"                                                "};
