/* XPM */
static char * Tmp.ami-d[] = {
/* arrdown pixmap
 * width height ncolors chars_per_pixel */
"45 45 138 2",
"j    c #000000000000",
"/*   c #0f0f0f0f0f0f",
"6    c #3f3f47475757",
"**   c #4f4f47475f5f",
"v.   c #575757576767",
"s    c #575757576f6f",
"X.   c #575757577777",
"H    c #575757577f7f",
"/.   c #57575f5f7777",
".*   c #5f5f57576f6f",
"Z.   c #5f5f57577777",
"V.   c #5f5f5f5f7777",
"g.   c #5f5f5f5f7f7f",
"c.   c #5f5f67677f7f",
"R.   c #5f5f6f6f8787",
"q    c #676767677f7f",
"o    c #676767678787",
"H.   c #67676f6f7f7f",
"B    c #67676f6f8787",
"i    c #67676f6f8f8f",
"0.   c #6f6f67677f7f",
"n    c #6f6f67678787",
"x.   c #6f6f67678f8f",
"S.   c #6f6f6f6f7777",
"p.   c #6f6f6f6f7f7f",
"w    c #6f6f6f6f8787",
"m    c #6f6f6f6f8f8f",
"r    c #6f6f6f6f9797",
"T.   c #6f6f77778787",
"G    c #6f6f77778f8f",
"v    c #6f6f77779797",
"D    c #6f6f77779f9f",
"U.   c #6f6f7f7f8f8f",
"b.   c #6f6f7f7f9797",
"p    c #6f6f7f7f9f9f",
"U    c #6f6f87879f9f",
"t.   c #77776f6f8f8f",
"F.   c #777777778787",
"e.   c #777777778f8f",
"x    c #777777779797",
"h    c #777777779f9f",
"Q.   c #77777f7f8f8f",
"g    c #77777f7f9797",
"T    c #77777f7f9f9f",
"W    c #77778f8fa7a7",
"O.   c #7f7f7f7f8f8f",
"d    c #7f7f7f7f9797",
"b    c #7f7f7f7f9f9f",
"9    c #7f7f7f7fa7a7",
"f    c #7f7f87879f9f",
"c    c #7f7f8787a7a7",
"a    c #7f7f8787afaf",
"P.   c #7f7f8f8f9797",
"e    c #7f7f8f8fafaf",
"L.   c #878787878f8f",
"A    c #878787879797",
"l.   c #878787879f9f",
"l    c #87878787afaf",
"M.   c #87878f8f9797",
"i.   c #87878f8fa7a7",
"I.   c #87878f8fafaf",
"u    c #87878f8fb7b7",
"*.   c #87879797afaf",
"+.   c #87879797b7b7",
"J.   c #8f8f87878f8f",
"B.   c #8f8f87879f9f",
"Q    c #8f8f8f8f9f9f",
"R    c #8f8f8f8fa7a7",
"f.   c #8f8f8f8fafaf",
"S    c #8f8f9797afaf",
"5.   c #8f8f9f9fafaf",
"K.   c #979797979797",
"y    c #97979797a7a7",
"z    c #97979797afaf",
"8    c #97979797bfbf",
"9.   c #9797a7a7b7b7",
"5    c #9797a7a7cfcf",
"7.   c #9f9f9797a7a7",
"4    c #9f9f9797bfbf",
"0    c #9f9f9797c7c7",
"6.   c #9f9f9f9fafaf",
"3.   c #9f9f9f9fb7b7",
"3    c #9f9f9f9fbfbf",
"+    c #9f9f9f9fc7c7",
"*    c #9f9f9f9fcfcf",
"1    c #9f9f9f9fd7d7",
"4.   c #9f9fa7a7b7b7",
"a.   c #9f9fa7a7bfbf",
"-    c #9f9fa7a7cfcf",
"2    c #9f9fa7a7d7d7",
"/    c #9f9fafafdfdf",
"r.   c #a7a79f9fafaf",
"1.   c #a7a79f9fb7b7",
"N.   c #a7a7a7a7a7a7",
"G.   c #a7a7a7a7afaf",
"2.   c #a7a7a7a7bfbf",
".    c #a7a7a7a7d7d7",
"C.   c #a7a7afafb7b7",
"E    c #a7a7afafbfbf",
"n.   c #a7a7afafc7c7",
"D.   c #afafafafafaf",
"A.   c #afafafafb7b7",
"Y.   c #afafafafd7d7",
"k    c #afafafafdfdf",
"u.   c #afafb7b7bfbf",
"J    c #afafb7b7c7c7",
"w.   c #afafb7b7dfdf",
"C    c #afafb7b7efef",
"I    c #afafbfbfefef",
"E.   c #b7b7b7b7b7b7",
"..   c #b7b7b7b7bfbf",
"Y    c #b7b7b7b7c7c7",
"t    c #b7b7b7b7e7e7",
"K    c #b7b7bfbfc7c7",
"-.   c #b7b7c7c7f7f7",
"V    c #b7b7c7c7ffff",
"h.   c #b7b7cfcfffff",
"W.   c #b7b7d7d7ffff",
"z.   c #bfbfbfbfbfbf",
"q.   c #bfbfbfbfc7c7",
"M    c #bfbfbfbfcfcf",
"7    c #bfbfbfbfefef",
"L    c #bfbfc7c7cfcf",
"y.   c #c7c7c7c7c7c7",
"j.   c #c7c7c7c7cfcf",
"m.   c #c7c7c7c7d7d7",
"s.   c #cfcfcfcfd7d7",
"d.   c #cfcfcfcfdfdf",
"P    c #d7d7d7d7d7d7",
"k.   c #d7d7d7d7dfdf",
"F    c #dfdfdfdfdfdf",
"o.   c #dfdfdfdfe7e7",
"Z    c #e7e7e7e7e7e7",
"N    c #e7e7e7e7efef",
"O    c #efefefefefef",
"8.   c #efefefeff7f7",
"     c #efefffffffff",
"X    c #ffffffffffff",
"  . * / / - + + 0 1 0 + 2 - - 3 4 - - - * 0 * / / - + + 0 1 0 + 2 - - 3 4 - - - * 0 * 5 6 ",
"7 8 9 a a 9 b c d c b b e f c b b b c c g h 9 a a 9 b c d c b b e f c b b b c c g h 9 i j ",
"k l m n n o m p m n q n o n n m r m m m n r m n n o m p m n q n o n n m r m m m n r m s j ",
"t u v n r r n w o o m x y y y y z A v m m v v n r r n w o o m r B n o i m m v m m v v s j ",
"C c o r D v n r m w D E F F F F F F v G m w o r D v n r m w D p v m r w o n v G m w o H j ",
"I c B o m m m D w m D J K L M N O P v G g Q Q Q R R R S Q R T p U c S f m n v G m w B s j ",
"V u v m B m r m n q m v p U W X X Y v v M Z Z Z Z Z Z Z Z Z ..v p L Z *.w m v v D v v /.j ",
"-.+.U p m w w m r w 0.1.2.*.E X X z v v 3.4.5.S 6.7.Q R 8.X A n r 9.a.p w m v v v b.U c.j ",
"-.+.p v w m m v p p ..X O T d.X X e.m G v p p v w m m f.X N m q n D p v n w m G v p p g.j ",
"h.u v w n m m r D i.O O A w Z O j.o m Z O c v k.O l.m m.X n.p w o.Z m w p.o m v p D v s j ",
"-.c q 0.o r D r w q.P r.m l.P P 6.m y O j.m A O s.r T O N t.w Q O u.p.w w m m v v m q v.j ",
"w.b n v x.n v p z y.z.m v 6.y.y.d m ..P A 0.A.P B.n 6.P C.m q ..P f m w m m w m w 0.n g.j ",
"k c v p m 0.0.g D.D.D.D.D.D.D.D.w e.z.A.n e.z.E.G 0.E.z.T v F.z.G.m w H.w w n q n w v c.j ",
"k I.p U p G q J.K.K.K.K.K.K.K.L.D M.N.O.n A N.P.p Q.N.K.m q L.N.F.o w v D p D m n v p R.j ",
"k l p U U p m S.p.p.T.p.p.p.p.G p U.T.w o w T.b.U G w 0.n m T.p.w r w v p U p m o r p R.j ",
"k c v U U U p x.r p p w n r p.v p D m n o m v U U U p x.r p p w n r p.v p D m n o m v R.j ",
"t 9 m D U U p m m D v o x.n 0.w v o o m m B m D U U p m m D v o x.n 0.w v o o m m B m c.j ",
"h.c n m D v r n m r r m m m o B w m r D p m n m D v r n m r r m m m o B w m r D p m n V.j ",
"W.u 0.n m w w m w w w w w m m w v v v p p v 0.n m w w m w w w w w m m w v v v p p v 0.s j ",
"h.I.w m G G m m m m n w m v v m v v v b.p G w m G G m m m m n w m v v m v v v b.p G w X.j ",
"t 9 m v v G w m m r n w r G G w w m G G m n m v v G w m m r n w r G G w w m G G m n m c.j ",
"Y.9 m v v m m v n m m m v m m w w w G m o n m v v m m v n m m m v m m w w w G m o n m g.j ",
"k l m n n o m p m n q n o n n m r m m m n r m n n o m p m n q n o n n m r m m m n r m s j ",
"t u v n r r n w o o m r B n o i m m v m m v v n r r n w o o m r B n o i m m v m m v v s j ",
"C c o r D v n r m w D p v m r w o n v G m w o r D v n r m w D p v m r w o n v G m w o H j ",
"I c B o m m m D w m D p U p p v m n v G m w B o m m m D w m D p U p p v m n v G m w B s j ",
"V u v m B m r m n q m v p U U p w m v v D v v m B m r m n q m v p U U p w m v v D v v /.j ",
"-.+.U p m w w m r w q n r p U p w m v v v b.U p m w w m r w q n r p U p w m v v v b.U c.j ",
"-.+.p v w m m v p p m q n D p v n w m G v p p v w m m v p p m q n D p v n w m G v p p g.j ",
"h.u v w n m m r D p p w q w w w p.o m v p D v w n m m r D p p w q w w w p.o m v p D v s j ",
"-.c q 0.o r D r w w w n m m p.w w m m v v m q 0.o r D r w w w n m m p.w w m m v v m q v.j ",
"w.b n v x.n v p D m q w v D m w m m w m w 0.n v x.n v p D m q w v D m w m m w m w 0.n g.j ",
"k c v p m 0.0.G D v 0.0.m m w H.w w n q n w v p m 0.0.G D v 0.0.m m w H.w w n q n w v c.j ",
"k I.p U p G q n m q n w q o w v D p D m n v p U p G q n m q n w q o w v D p D m n v p R.j ",
"k l p U U p r n n m v m w r w v p U p m o r p U U p r n n m v m w r w v p U p m o r p R.j ",
"k c v U U U p x.r p p w n r p.v p D m n o m v U U U p x.r p p w n r p.v p D m n o m v R.j ",
"t 9 m D U U p m m D v o x.n 0.w v o o m m B m D U U p m m D v o x.n 0.w v o o m m B m c.j ",
"h.c n m D v r n m r r m m m o B w m r D p m n m D v r n m r r m m m o B w m r D p m n V.j ",
"W.u 0.n m w w m w w w w w m m w v v v p p v 0.n m w w m w w w w w m m w v v v p p v 0.s j ",
"h.I.w m G G m m m m n w m v v m v v v b.p G w m G G m m m m n w m v v m v v v b.p G w X.j ",
"t 9 m v v G w m m r n w r G G w w m G G m n m v v G w m m r n w r G G w w m G G m n m c.j ",
"Y.9 m v v m m v n m m m v m m w w w G m o n m v v m m v n m m m v m m w w w G m o n m g.j ",
"k l m n n o m p m n q n o n n m r m m m n r m n n o m p m n q n o n n m r m m m n r m s j ",
". v g.X.g.g.Z.Z.s s V.g.X..*s X.g.Z.g.V.V.g.g.X.g.g.Z.Z.s s V.g.X..*s X.g.Z.g.V.V.g.g.**j ",
"s /*j j j j j j j j j j j j j j j j j j j j j j j j j j j j j j j j j j j j j j j j j j j "
};

